…
# Putting 80% of the data into the training set
hfi_2016_split <- initial_split(hfi_2016, prop = 0.80)

# Assign the two splits to data frames 
hfi_2016_train <- training(hfi_2016_split)
hfi_2016_test <- testing(hfi_2016_split)

# splits
hfi_2016_train
```

    ## # A tibble: 129 × 6
    ##     year ISO_code countries  region               pf_score pf_expression_control
    ##    <dbl> <chr>    <chr>      <chr>                   <dbl>                 <dbl>
    ##  1  2016 ISL      Iceland    Western Europe           9.08                  8.75
    ##  2  2016 CRI      Costa Rica Latin America & the…     8.17                  8.5 
    ##  3  2016 EGY      Egypt      Middle East & North…     3.89                  1.5 
    ##  4  2016 TZA      Tanzania   Sub-Saharan Africa       6.13                  4.5 
    ##  5  2016 NIC      Nicaragua  Latin America & the…     6.43                  4   
    ##  6  2016 NAM      Namibia    Sub-Saharan Africa       7.39                  6.75
    ##  7  2016 QAT      Qatar      Middle East & North…     5.53                  3.25
    ##  8  2016 CPV      Cape Verde Sub-Saharan Africa       7.99                  7.75
    ##  9  2016 BGD      Bangladesh South Asia               5.30                  3.25
    ## 10  2016 BEN      Benin      Sub-Saharan Africa       7.50                  7.25
    ## # ℹ 119 more rows

``` r
hfi_2016_test
```

    ## # A tibble: 33 × 6
    ##     year ISO_code countries     region            pf_score pf_expression_control
    ##    <dbl> <chr>    <chr>         <chr>                <dbl>                 <dbl>
    ##  1  2016 ALB      Albania       Eastern Europe        7.60                  5.25
    ##  2  2016 ARG      Argentina     Latin America & …     8.10                  5.5 
    ##  3  2016 AUT      Austria       Western Europe        9.25                  8   
    ##  4  2016 AZE      Azerbaijan    Caucasus & Centr…     5.68                  0.25
    ##  5  2016 BLR      Belarus       Eastern Europe        6.06                  2.5 
    ##  6  2016 BLZ      Belize        Latin America & …     7.43                  6.75
    ##  7  2016 BTN      Bhutan        South Asia            6.60                  5   
    ##  8  2016 BGR      Bulgaria      Eastern Europe        8.16                  5.75
    ##  9  2016 BFA      Burkina Faso  Sub-Saharan Afri…     7.46                  7   
    ## 10  2016 CIV      Cote d'Ivoire Sub-Saharan Afri…     7.06                  5.25
    ## # ℹ 23 more rows
…
Now we will assess using the testing data set.

- In the code chunk below titled `train-fit-lm`, replace “verbatim” with
  “r” just before the code chunk title and update `data_test` to
  whatever R object you assigned your testing data to above.

``` r
test_aug <- augment(slr_train, new_data = hfi_2016_test)
test_aug
```

    ## # A tibble: 33 × 8
    ##     year ISO_code countries  region pf_score pf_expression_control .pred  .resid
    ##    <dbl> <chr>    <chr>      <chr>     <dbl>                 <dbl> <dbl>   <dbl>
    ##  1  2016 ALB      Albania    Easte…     7.60                  5.25  7.13  0.468 
    ##  2  2016 ARG      Argentina  Latin…     8.10                  5.5   7.26  0.836 
    ##  3  2016 AUT      Austria    Weste…     9.25                  8     8.62  0.628 
    ##  4  2016 AZE      Azerbaijan Cauca…     5.68                  0.25  4.42  1.26  
    ##  5  2016 BLR      Belarus    Easte…     6.06                  2.5   5.64  0.421 
    ##  6  2016 BLZ      Belize     Latin…     7.43                  6.75  7.94 -0.510 
    ##  7  2016 BTN      Bhutan     South…     6.60                  5     6.99 -0.392 
    ##  8  2016 BGR      Bulgaria   Easte…     8.16                  5.75  7.40  0.756 
    ##  9  2016 BFA      Burkina F… Sub-S…     7.46                  7     8.08 -0.621 
    ## 10  2016 CIV      Cote d'Iv… Sub-S…     7.06                  5.25  7.13 -0.0660
    ## # ℹ 23 more rows
…
Look at the various information produced by this code. Can you identify
what each column represents?

The `.fitted` column in this output can also be obtained by using
`predict` (i.e., `predict(slr_fit, new_data = data_test)`)

``` r
test_pred <- predict(slr_train, new_data = hfi_2016_test)
test_pred
```

    ## # A tibble: 33 × 1
    ##    .pred
    ##    <dbl>
    ##  1  7.13
    ##  2  7.26
    ##  3  8.62
    ##  4  4.42
    ##  5  5.64
    ##  6  7.94
    ##  7  6.99
    ##  8  7.40
    ##  9  8.08
    ## 10  7.13
    ## # ℹ 23 more rows
…
In order to do these checks we need access to the fitted (predicted)
values and the residuals. We can use `broom::augment` to calculate
these.

- In the code chunk below titled `augment`, replace “verbatim” with “r”
  just before the code chunk title and update `data_test` to whatever R
  object you assigned your testing data to above.

``` r
train_aug <- augment(slr_train, new_data = hfi_2016_test)

train_aug
```

    ## # A tibble: 33 × 8
    ##     year ISO_code countries  region pf_score pf_expression_control .pred  .resid
    ##    <dbl> <chr>    <chr>      <chr>     <dbl>                 <dbl> <dbl>   <dbl>
    ##  1  2016 ALB      Albania    Easte…     7.60                  5.25  7.13  0.468 
    ##  2  2016 ARG      Argentina  Latin…     8.10                  5.5   7.26  0.836 
    ##  3  2016 AUT      Austria    Weste…     9.25                  8     8.62  0.628 
    ##  4  2016 AZE      Azerbaijan Cauca…     5.68                  0.25  4.42  1.26  
    ##  5  2016 BLR      Belarus    Easte…     6.06                  2.5   5.64  0.421 
    ##  6  2016 BLZ      Belize     Latin…     7.43                  6.75  7.94 -0.510 
    ##  7  2016 BTN      Bhutan     South…     6.60                  5     6.99 -0.392 
    ##  8  2016 BGR      Bulgaria   Easte…     8.16                  5.75  7.40  0.756 
    ##  9  2016 BFA      Burkina F… Sub-S…     7.46                  7     8.08 -0.621 
    ## 10  2016 CIV      Cote d'Iv… Sub-S…     7.06                  5.25  7.13 -0.0660
    ## # ℹ 23 more rows
…
